D:\Projects\MMD\57\57RD\src\main\java\DAO\DAO.java
D:\Projects\MMD\57\57RD\src\main\java\Entities\ProductsEntity.java
D:\Projects\MMD\57\57RD\src\main\java\DTO\OrderDTO.java
D:\Projects\MMD\57\57RD\src\main\java\Entities\OrdersEntity.java
D:\Projects\MMD\57\57RD\src\main\java\DTO\ProductDTO.java
D:\Projects\MMD\57\57RD\src\main\java\Mapper\Mapper.java
