D:\Projects\MMD\76\76ZVGyak5\src\main\java\Servlet\CarServlet.java
D:\Projects\MMD\76\76ZVGyak5\src\main\java\DTO\CarDTO.java
D:\Projects\MMD\76\76ZVGyak5\src\main\java\Mapper\CarMapper.java
D:\Projects\MMD\76\76ZVGyak5\src\main\java\Service\CarService.java
D:\Projects\MMD\76\76ZVGyak5\src\main\java\DAO\CarDAO.java
D:\Projects\MMD\76\76ZVGyak5\src\main\java\Entity\CarEntity.java
